I
800
DSF2TEXT

# file: D:\Avsim\X-Plane1050\Custom Scenery\UNBG\Earth nav data\+50+080\+51+085.dsf

PROPERTY sim/west 85
PROPERTY sim/east 86
PROPERTY sim/north 52
PROPERTY sim/south 51
PROPERTY sim/planet earth
PROPERTY sim/creation_agent WorldEditor1.4.1r1
PROPERTY laminar/internal_revision 0
PROPERTY sim/overlay 1
PROPERTY sim/exclude_obj 85.833232/51.969402/85.854614/51.979997
PROPERTY sim/exclude_net 85.833232/51.969402/85.854614/51.979997
PROPERTY sim/require_agpoint 1/7
PROPERTY sim/require_object 1/7
PROPERTY sim/require_agpoint 2/0
PROPERTY sim/require_object 2/0
PROPERTY sim/require_facade 6/0
OBJECT_DEF opensceneryx/objects/airport/vehicles/fire_engines/1.obj
OBJECT_DEF opensceneryx/objects/buildings/airport/fuel/1.obj
OBJECT_DEF opensceneryx/objects/furniture/pallets/4.obj
OBJECT_DEF lib/cars/car.obj
OBJECT_DEF opensceneryx/objects/airport/furniture/containers/small.obj
OBJECT_DEF opensceneryx/objects/airport/vehicles/busses_coaches/minibusses/servisair/1.obj
OBJECT_DEF opensceneryx/objects/airport/vehicles/fuel/medium/9.obj
OBJECT_DEF ruscenery/buildings/Mast2.obj
OBJECT_DEF objects/UNBG-generic-1.obj
POLYGON_DEF opensceneryx/lines/solid_lines/red.lin
POLYGON_DEF opensceneryx/lines/solid_lines/white.lin
POLYGON_DEF opensceneryx/lines/solid_lines/yellow.lin
POLYGON_DEF ortofoto\UNBG_E5.pol
POLYGON_DEF ortofoto\UNBG_E4.pol
POLYGON_DEF ortofoto\UNBG_E3.pol
POLYGON_DEF ortofoto\UNBG_E2.pol
POLYGON_DEF ortofoto\UNBG_E1.pol
POLYGON_DEF ortofoto\UNBG_D5.pol
POLYGON_DEF ortofoto\UNBG_D4.pol
POLYGON_DEF ortofoto\UNBG_D3.pol
POLYGON_DEF ortofoto\UNBG_D2.pol
POLYGON_DEF ortofoto\UNBG_D1.pol
POLYGON_DEF ortofoto\UNBG_C5.pol
POLYGON_DEF ortofoto\UNBG_C4.pol
POLYGON_DEF ortofoto\UNBG_C3.pol
POLYGON_DEF ortofoto\UNBG_C2.pol
POLYGON_DEF ortofoto\UNBG_C1.pol
POLYGON_DEF ortofoto\UNBG_B5.pol
POLYGON_DEF ortofoto\UNBG_B4.pol
POLYGON_DEF ortofoto\UNBG_B3.pol
POLYGON_DEF ortofoto\UNBG_B2.pol
POLYGON_DEF ortofoto\UNBG_B1.pol
POLYGON_DEF ortofoto\UNBG_A5.pol
POLYGON_DEF ortofoto\UNBG_A4.pol
POLYGON_DEF ortofoto\UNBG_A3.pol
POLYGON_DEF ortofoto\UNBG_A2.pol
POLYGON_DEF ortofoto\UNBG_A1.pol
OBJECT 0 85.840743019 51.968666075 205.117876
OBJECT 1 85.845875296 51.972405489 27.999084
OBJECT 1 85.845829995 51.972351129 24.065919
OBJECT 1 85.845798524 51.972301537 25.274434
OBJECT 1 85.845748455 51.972249084 20.758984
OBJECT 2 85.840784028 51.969707504 20.978714
OBJECT 3 85.841928931 51.971578641 295.036851
OBJECT 3 85.840808347 51.968933585 300.249943
OBJECT 4 85.841309987 51.970700294 279.029526
OBJECT 5 85.839713512 51.967565042 27.070726
OBJECT 6 85.841407740 51.971021210 293.987640
OBJECT 7 85.839909495 51.967386702 294.998398
OBJECT 7 85.840800717 51.970206760 294.998398
OBJECT 7 85.841157397 51.970691234 294.998398
OBJECT 7 85.840124552 51.969261654 240.000000
OBJECT 7 85.841010052 51.968867781 294.998398
OBJECT 7 85.840468833 51.969754711 294.998398
OBJECT 8 85.841184100 51.970002193 293.905241
BEGIN_POLYGON 0 0 2
BEGIN_WINDING
POLYGON_POINT 85.842113947 51.971730278
POLYGON_POINT 85.842051957 51.971720741
POLYGON_POINT 85.841899844 51.971761273
POLYGON_POINT 85.841833085 51.971870470
POLYGON_POINT 85.841905089 51.971968223
POLYGON_POINT 85.842077707 51.972007324
POLYGON_POINT 85.842239834 51.971959640
POLYGON_POINT 85.842263676 51.971925784
END_WINDING
END_POLYGON
BEGIN_POLYGON 0 1 2
BEGIN_WINDING
POLYGON_POINT 85.841412509 51.971990158
POLYGON_POINT 85.841488327 51.972091249
POLYGON_POINT 85.841654746 51.972130350
POLYGON_POINT 85.841821164 51.972082189
POLYGON_POINT 85.841874094 51.971979191
POLYGON_POINT 85.841798753 51.971880007
POLYGON_POINT 85.841628042 51.971839952
POLYGON_POINT 85.841465438 51.971892405
END_WINDING
END_POLYGON
BEGIN_POLYGON 0 1 2
BEGIN_WINDING
POLYGON_POINT 85.841307126 51.971264878
POLYGON_POINT 85.841243229 51.971383135
POLYGON_POINT 85.841330968 51.971494717
POLYGON_POINT 85.841525521 51.971531910
POLYGON_POINT 85.841700046 51.971482319
POLYGON_POINT 85.841770619 51.971360246
POLYGON_POINT 85.841686694 51.971254864
POLYGON_POINT 85.841485466 51.971209087
END_WINDING
END_POLYGON
BEGIN_POLYGON 0 1 2
BEGIN_WINDING
POLYGON_POINT 85.840872721 51.970901045
POLYGON_POINT 85.840950923 51.971003567
POLYGON_POINT 85.841150244 51.971050298
POLYGON_POINT 85.841327153 51.970994030
POLYGON_POINT 85.841400111 51.970880541
POLYGON_POINT 85.841314279 51.970762760
POLYGON_POINT 85.841114958 51.970725090
POLYGON_POINT 85.840940909 51.970771820
END_WINDING
END_POLYGON
BEGIN_POLYGON 0 1 2
BEGIN_WINDING
POLYGON_POINT 85.840544175 51.970338369
POLYGON_POINT 85.840481708 51.970440890
POLYGON_POINT 85.840561341 51.970542458
POLYGON_POINT 85.840724422 51.970578698
POLYGON_POINT 85.840874151 51.970534352
POLYGON_POINT 85.840934710 51.970429446
POLYGON_POINT 85.840860800 51.970328832
POLYGON_POINT 85.840688182 51.970292592
END_WINDING
END_POLYGON
BEGIN_POLYGON 0 1 2
BEGIN_WINDING
POLYGON_POINT 85.840392538 51.970323587
POLYGON_POINT 85.840551328 51.970353151
POLYGON_POINT 85.840707733 51.970307851
POLYGON_POINT 85.840759709 51.970211528
POLYGON_POINT 85.840686751 51.970109960
POLYGON_POINT 85.840515564 51.970066567
POLYGON_POINT 85.840359636 51.970114729
POLYGON_POINT 85.840306229 51.970222972
END_WINDING
END_POLYGON
BEGIN_POLYGON 0 1 2
BEGIN_WINDING
POLYGON_POINT 85.840188449 51.969888228
POLYGON_POINT 85.840139334 51.969992180
POLYGON_POINT 85.840213245 51.970092794
POLYGON_POINT 85.840389200 51.970128080
POLYGON_POINT 85.840537976 51.970081827
POLYGON_POINT 85.840588521 51.969979782
POLYGON_POINT 85.840517472 51.969884413
POLYGON_POINT 85.840353914 51.969840543
END_WINDING
END_POLYGON
BEGIN_POLYGON 0 1 2
BEGIN_WINDING
POLYGON_POINT 85.839789807 51.969532502
POLYGON_POINT 85.839861810 51.969634070
POLYGON_POINT 85.840030613 51.969673648
POLYGON_POINT 85.840186065 51.969630732
POLYGON_POINT 85.840238994 51.969521057
POLYGON_POINT 85.840165084 51.969422827
POLYGON_POINT 85.840002003 51.969384203
POLYGON_POINT 85.839839399 51.969430934
END_WINDING
END_POLYGON
BEGIN_POLYGON 0 1 2
BEGIN_WINDING
POLYGON_POINT 85.839604791 51.969199187
POLYGON_POINT 85.839656291 51.969273098
POLYGON_POINT 85.839748798 51.969292649
POLYGON_POINT 85.839858473 51.969263561
POLYGON_POINT 85.839887083 51.969202049
POLYGON_POINT 85.839831292 51.969132906
POLYGON_POINT 85.839745937 51.969119554
POLYGON_POINT 85.839637694 51.969148642
END_WINDING
END_POLYGON
BEGIN_POLYGON 0 1 2
BEGIN_WINDING
POLYGON_POINT 85.839910925 51.968882086
POLYGON_POINT 85.840011063 51.969003204
POLYGON_POINT 85.840244717 51.969053750
POLYGON_POINT 85.840465496 51.968978408
POLYGON_POINT 85.840563725 51.968846799
POLYGON_POINT 85.840472648 51.968719005
POLYGON_POINT 85.840233272 51.968670367
POLYGON_POINT 85.840003910 51.968739986
END_WINDING
END_POLYGON
BEGIN_POLYGON 0 1 2
BEGIN_WINDING
POLYGON_POINT 85.839376383 51.968535897
POLYGON_POINT 85.839470321 51.968664645
POLYGON_POINT 85.839707313 51.968708515
POLYGON_POINT 85.839935721 51.968641756
POLYGON_POINT 85.840029660 51.968498703
POLYGON_POINT 85.839935721 51.968369955
POLYGON_POINT 85.839700637 51.968325132
POLYGON_POINT 85.839467460 51.968391890
END_WINDING
END_POLYGON
BEGIN_POLYGON 0 1 2
BEGIN_WINDING
POLYGON_POINT 85.838983940 51.968159190
POLYGON_POINT 85.839101720 51.968311780
POLYGON_POINT 85.839366846 51.968360418
POLYGON_POINT 85.839630541 51.968284123
POLYGON_POINT 85.839744507 51.968120089
POLYGON_POINT 85.839628634 51.967967498
POLYGON_POINT 85.839359693 51.967917906
POLYGON_POINT 85.839088369 51.967994202
END_WINDING
END_POLYGON
BEGIN_POLYGON 1 0 2
BEGIN_WINDING
POLYGON_POINT 85.841562238 51.972172789
POLYGON_POINT 85.841525998 51.972140364
POLYGON_POINT 85.841307126 51.971863317
POLYGON_POINT 85.841368162 51.971750305
POLYGON_POINT 85.841987106 51.971575780
END_WINDING
END_POLYGON
BEGIN_POLYGON 1 0 2
BEGIN_WINDING
POLYGON_POINT 85.840736343 51.970171473
POLYGON_POINT 85.840663386 51.970156214
POLYGON_POINT 85.840338178 51.970254921
POLYGON_POINT 85.840965705 51.971077478
POLYGON_POINT 85.841082532 51.971094167
POLYGON_POINT 85.841382944 51.971007858
POLYGON_POINT 85.841478790 51.970901522
END_WINDING
END_POLYGON
BEGIN_POLYGON 1 1 2
BEGIN_WINDING
POLYGON_POINT 85.841417754 51.971046006
POLYGON_POINT 85.841555085 51.971068418
POLYGON_POINT 85.841924640 51.971540494
POLYGON_POINT 85.841915103 51.971557660
POLYGON_POINT 85.841494049 51.971685454
POLYGON_POINT 85.841417754 51.971662566
POLYGON_POINT 85.841057259 51.971192397
POLYGON_POINT 85.841100175 51.971136130
END_WINDING
END_POLYGON
BEGIN_POLYGON 1 0 2
BEGIN_WINDING
POLYGON_POINT 85.839240005 51.968412871
POLYGON_POINT 85.839252880 51.968427176
END_WINDING
END_POLYGON
BEGIN_POLYGON 1 0 2
BEGIN_WINDING
POLYGON_POINT 85.839265755 51.968441482
POLYGON_POINT 85.839252880 51.968426223
END_WINDING
END_POLYGON
BEGIN_POLYGON 1 0 2
BEGIN_WINDING
POLYGON_POINT 85.839187076 51.968448157
POLYGON_POINT 85.839253357 51.968426223
END_WINDING
END_POLYGON
BEGIN_POLYGON 1 0 2
BEGIN_WINDING
POLYGON_POINT 85.841500725 51.972176127
POLYGON_POINT 85.841259918 51.971863317
POLYGON_POINT 85.841358625 51.971677348
POLYGON_POINT 85.839399271 51.969120508
POLYGON_POINT 85.839456970 51.968887808
POLYGON_POINT 85.838587205 51.967745289
POLYGON_POINT 85.838601034 51.967733845
POLYGON_POINT 85.839736400 51.967398146
POLYGON_POINT 85.839803159 51.967401007
POLYGON_POINT 85.840938525 51.968894484
POLYGON_POINT 85.840908961 51.968926909
POLYGON_POINT 85.840075914 51.969170100
POLYGON_POINT 85.840021077 51.969234951
POLYGON_POINT 85.840096895 51.969337949
POLYGON_POINT 85.839791714 51.969431411
POLYGON_POINT 85.839759766 51.969501984
POLYGON_POINT 85.840275711 51.970181964
POLYGON_POINT 85.840300984 51.970184825
POLYGON_POINT 85.840665770 51.970073243
END_WINDING
END_POLYGON
BEGIN_POLYGON 1 1 2
BEGIN_WINDING
POLYGON_POINT 85.840470741 51.968375677
POLYGON_POINT 85.839628157 51.968903067
POLYGON_POINT 85.839545186 51.968897345
POLYGON_POINT 85.839506085 51.968870642
POLYGON_POINT 85.838673514 51.967777714
POLYGON_POINT 85.838679236 51.967758640
POLYGON_POINT 85.839733539 51.967445830
POLYGON_POINT 85.839766918 51.967449645
END_WINDING
END_POLYGON
BEGIN_POLYGON 1 1 2
BEGIN_WINDING
POLYGON_POINT 85.840496490 51.968415732
POLYGON_POINT 85.840845541 51.968873503
POLYGON_POINT 85.840818837 51.968917372
POLYGON_POINT 85.839915217 51.969181544
POLYGON_POINT 85.839868486 51.969267376
POLYGON_POINT 85.839666781 51.969324598
POLYGON_POINT 85.839616236 51.969315061
POLYGON_POINT 85.839465076 51.969119554
POLYGON_POINT 85.839480812 51.969039445
END_WINDING
END_POLYGON
BEGIN_POLYGON 2 0 2
BEGIN_WINDING
POLYGON_POINT 85.839309148 51.972357328
POLYGON_POINT 85.839354925 51.972298199
POLYGON_POINT 85.839404994 51.972276265
POLYGON_POINT 85.840868906 51.971851873
POLYGON_POINT 85.840980011 51.971845674
POLYGON_POINT 85.841052968 51.971851873
POLYGON_POINT 85.841154059 51.971869039
POLYGON_POINT 85.841249905 51.971914340
POLYGON_POINT 85.841318093 51.971959163
POLYGON_POINT 85.841502155 51.972184710
END_WINDING
END_POLYGON
BEGIN_POLYGON 2 0 2
BEGIN_WINDING
POLYGON_POINT 85.839151789 51.972154669
POLYGON_POINT 85.839252880 51.972165160
POLYGON_POINT 85.840760662 51.971726463
END_WINDING
END_POLYGON
BEGIN_POLYGON 2 0 4
BEGIN_WINDING
POLYGON_POINT 85.835728523 51.967699035 85.835728523 51.967699035
POLYGON_POINT 85.835801957 51.967732891 85.835801957 51.967732891
POLYGON_POINT 85.835852502 51.967748627 85.835852502 51.967748627
POLYGON_POINT 85.835895895 51.967762455 85.835895895 51.967762455
POLYGON_POINT 85.835951209 51.967776761 85.835951209 51.967776761
POLYGON_POINT 85.835994602 51.967779622 85.835994602 51.967779622
POLYGON_POINT 85.838123236 51.967884051 85.838123236 51.967884051
POLYGON_POINT 85.838189994 51.967875944 85.838189994 51.967875944
POLYGON_POINT 85.838261044 51.967864500 85.838265812 51.967864500
POLYGON_POINT 85.838336862 51.967850195 85.838336862 51.967850195
POLYGON_POINT 85.838407912 51.967830644 85.838407912 51.967830644
POLYGON_POINT 85.838437476 51.967823491 85.838437476 51.967823491
END_WINDING
END_POLYGON
BEGIN_POLYGON 2 0 4
BEGIN_WINDING
POLYGON_POINT 85.836067559 51.968137255 85.836067559 51.968137255
POLYGON_POINT 85.836113336 51.968070974 85.836113336 51.968070974
POLYGON_POINT 85.836195830 51.968021382 85.836195830 51.968021382
POLYGON_POINT 85.836308366 51.967993248 85.836308366 51.967993248
POLYGON_POINT 85.838097486 51.968079557 85.838097486 51.968079557
POLYGON_POINT 85.838216697 51.968100538 85.838216697 51.968100538
POLYGON_POINT 85.838306344 51.968132963 85.838306344 51.968132963
POLYGON_POINT 85.838379778 51.968169680 85.838379778 51.968169680
POLYGON_POINT 85.838443675 51.968210689 85.838446059 51.968212119
POLYGON_POINT 85.838494221 51.968271725 85.838494221 51.968271725
END_WINDING
END_POLYGON
BEGIN_POLYGON 3 65535 4
BEGIN_WINDING
POLYGON_POINT 85.863010224 51.953599222 1.000000000 0.000000000
POLYGON_POINT 85.863010224 51.960385672 1.000000000 1.000000000
POLYGON_POINT 85.852026112 51.960385672 0.000000000 1.000000000
POLYGON_POINT 85.852026112 51.953599222 0.000000000 0.000000000
END_WINDING
END_POLYGON
BEGIN_POLYGON 4 65535 4
BEGIN_WINDING
POLYGON_POINT 85.852025635 51.953599222 1.000000000 0.000000000
POLYGON_POINT 85.852025635 51.960385672 1.000000000 1.000000000
POLYGON_POINT 85.841041047 51.960385672 0.000000000 1.000000000
POLYGON_POINT 85.841041047 51.953599222 0.000000000 0.000000000
END_WINDING
END_POLYGON
BEGIN_POLYGON 5 65535 4
BEGIN_WINDING
POLYGON_POINT 85.841041047 51.953599222 1.000000000 0.000000000
POLYGON_POINT 85.841041047 51.960385672 1.000000000 1.000000000
POLYGON_POINT 85.830056458 51.960385672 0.000000000 1.000000000
POLYGON_POINT 85.830056458 51.953599222 0.000000000 0.000000000
END_WINDING
END_POLYGON
BEGIN_POLYGON 6 65535 4
BEGIN_WINDING
POLYGON_POINT 85.830056458 51.953599222 1.000000000 0.000000000
POLYGON_POINT 85.830056458 51.960385672 1.000000000 1.000000000
POLYGON_POINT 85.819071870 51.960385672 0.000000000 1.000000000
POLYGON_POINT 85.819071870 51.953599222 0.000000000 0.000000000
END_WINDING
END_POLYGON
BEGIN_POLYGON 7 65535 4
BEGIN_WINDING
POLYGON_POINT 85.819072347 51.953599222 1.000000000 0.000000000
POLYGON_POINT 85.819072347 51.960385672 1.000000000 1.000000000
POLYGON_POINT 85.808087758 51.960385672 0.000000000 1.000000000
POLYGON_POINT 85.808087758 51.953599222 0.000000000 0.000000000
END_WINDING
END_POLYGON
BEGIN_POLYGON 8 65535 4
BEGIN_WINDING
POLYGON_POINT 85.863010224 51.960385672 1.000000000 0.000000000
POLYGON_POINT 85.863010224 51.967171168 1.000000000 1.000000000
POLYGON_POINT 85.852026112 51.967171168 0.000000000 1.000000000
POLYGON_POINT 85.852026112 51.960385672 0.000000000 0.000000000
END_WINDING
END_POLYGON
BEGIN_POLYGON 9 65535 4
BEGIN_WINDING
POLYGON_POINT 85.852025635 51.960385672 1.000000000 0.000000000
POLYGON_POINT 85.852025635 51.967171168 1.000000000 1.000000000
POLYGON_POINT 85.841041047 51.967171168 0.000000000 1.000000000
POLYGON_POINT 85.841041047 51.960385672 0.000000000 0.000000000
END_WINDING
END_POLYGON
BEGIN_POLYGON 10 65535 4
BEGIN_WINDING
POLYGON_POINT 85.841041047 51.960385672 1.000000000 0.000000000
POLYGON_POINT 85.841041047 51.967171168 1.000000000 1.000000000
POLYGON_POINT 85.830056458 51.967171168 0.000000000 1.000000000
POLYGON_POINT 85.830056458 51.960385672 0.000000000 0.000000000
END_WINDING
END_POLYGON
BEGIN_POLYGON 11 65535 4
BEGIN_WINDING
POLYGON_POINT 85.830056458 51.960385672 1.000000000 0.000000000
POLYGON_POINT 85.830056458 51.967171168 1.000000000 1.000000000
POLYGON_POINT 85.819071870 51.967171168 0.000000000 1.000000000
POLYGON_POINT 85.819071870 51.960385672 0.000000000 0.000000000
END_WINDING
END_POLYGON
BEGIN_POLYGON 12 65535 4
BEGIN_WINDING
POLYGON_POINT 85.819072347 51.960385672 1.000000000 0.000000000
POLYGON_POINT 85.819072347 51.967171168 1.000000000 1.000000000
POLYGON_POINT 85.808087758 51.967171168 0.000000000 1.000000000
POLYGON_POINT 85.808087758 51.960385672 0.000000000 0.000000000
END_WINDING
END_POLYGON
BEGIN_POLYGON 13 65535 4
BEGIN_WINDING
POLYGON_POINT 85.863010224 51.967171168 1.000000000 0.000000000
POLYGON_POINT 85.863010224 51.973955711 1.000000000 1.000000000
POLYGON_POINT 85.852026112 51.973955711 0.000000000 1.000000000
POLYGON_POINT 85.852026112 51.967171168 0.000000000 0.000000000
END_WINDING
END_POLYGON
BEGIN_POLYGON 14 65535 4
BEGIN_WINDING
POLYGON_POINT 85.852025635 51.967171168 1.000000000 0.000000000
POLYGON_POINT 85.852025635 51.973955711 1.000000000 1.000000000
POLYGON_POINT 85.841041047 51.973955711 0.000000000 1.000000000
POLYGON_POINT 85.841041047 51.967171168 0.000000000 0.000000000
END_WINDING
END_POLYGON
BEGIN_POLYGON 15 65535 4
BEGIN_WINDING
POLYGON_POINT 85.841041047 51.967171168 1.000000000 0.000000000
POLYGON_POINT 85.841041047 51.973955711 1.000000000 1.000000000
POLYGON_POINT 85.830056458 51.973955711 0.000000000 1.000000000
POLYGON_POINT 85.830056458 51.967171168 0.000000000 0.000000000
END_WINDING
END_POLYGON
BEGIN_POLYGON 16 65535 4
BEGIN_WINDING
POLYGON_POINT 85.830056458 51.967171168 1.000000000 0.000000000
POLYGON_POINT 85.830056458 51.973955711 1.000000000 1.000000000
POLYGON_POINT 85.819071870 51.973955711 0.000000000 1.000000000
POLYGON_POINT 85.819071870 51.967171168 0.000000000 0.000000000
END_WINDING
END_POLYGON
BEGIN_POLYGON 17 65535 4
BEGIN_WINDING
POLYGON_POINT 85.819072347 51.967171168 1.000000000 0.000000000
POLYGON_POINT 85.819072347 51.973955711 1.000000000 1.000000000
POLYGON_POINT 85.808087758 51.973955711 0.000000000 1.000000000
POLYGON_POINT 85.808087758 51.967171168 0.000000000 0.000000000
END_WINDING
END_POLYGON
BEGIN_POLYGON 18 65535 4
BEGIN_WINDING
POLYGON_POINT 85.863010224 51.973955711 1.000000000 0.000000000
POLYGON_POINT 85.863010224 51.980738346 1.000000000 1.000000000
POLYGON_POINT 85.852026112 51.980738346 0.000000000 1.000000000
POLYGON_POINT 85.852026112 51.973955711 0.000000000 0.000000000
END_WINDING
END_POLYGON
BEGIN_POLYGON 19 65535 4
BEGIN_WINDING
POLYGON_POINT 85.852025635 51.973955711 1.000000000 0.000000000
POLYGON_POINT 85.852025635 51.980738346 1.000000000 1.000000000
POLYGON_POINT 85.841041047 51.980738346 0.000000000 1.000000000
POLYGON_POINT 85.841041047 51.973955711 0.000000000 0.000000000
END_WINDING
END_POLYGON
BEGIN_POLYGON 20 65535 4
BEGIN_WINDING
POLYGON_POINT 85.841041047 51.973955711 1.000000000 0.000000000
POLYGON_POINT 85.841041047 51.980738346 1.000000000 1.000000000
POLYGON_POINT 85.830056458 51.980738346 0.000000000 1.000000000
POLYGON_POINT 85.830056458 51.973955711 0.000000000 0.000000000
END_WINDING
END_POLYGON
BEGIN_POLYGON 21 65535 4
BEGIN_WINDING
POLYGON_POINT 85.830056458 51.973955711 1.000000000 0.000000000
POLYGON_POINT 85.830056458 51.980738346 1.000000000 1.000000000
POLYGON_POINT 85.819071870 51.980738346 0.000000000 1.000000000
POLYGON_POINT 85.819071870 51.973955711 0.000000000 0.000000000
END_WINDING
END_POLYGON
BEGIN_POLYGON 22 65535 4
BEGIN_WINDING
POLYGON_POINT 85.819072347 51.973955711 1.000000000 0.000000000
POLYGON_POINT 85.819072347 51.980738346 1.000000000 1.000000000
POLYGON_POINT 85.808087758 51.980738346 0.000000000 1.000000000
POLYGON_POINT 85.808087758 51.973955711 0.000000000 0.000000000
END_WINDING
END_POLYGON
BEGIN_POLYGON 23 65535 4
BEGIN_WINDING
POLYGON_POINT 85.863010224 51.980738346 1.000000000 0.000000000
POLYGON_POINT 85.863010224 51.987520981 1.000000000 1.000000000
POLYGON_POINT 85.852026112 51.987520981 0.000000000 1.000000000
POLYGON_POINT 85.852026112 51.980738346 0.000000000 0.000000000
END_WINDING
END_POLYGON
BEGIN_POLYGON 24 65535 4
BEGIN_WINDING
POLYGON_POINT 85.852025635 51.980738346 1.000000000 0.000000000
POLYGON_POINT 85.852025635 51.987520981 1.000000000 1.000000000
POLYGON_POINT 85.841041047 51.987520981 0.000000000 1.000000000
POLYGON_POINT 85.841041047 51.980738346 0.000000000 0.000000000
END_WINDING
END_POLYGON
BEGIN_POLYGON 25 65535 4
BEGIN_WINDING
POLYGON_POINT 85.841041047 51.980738346 1.000000000 0.000000000
POLYGON_POINT 85.841041047 51.987520981 1.000000000 1.000000000
POLYGON_POINT 85.830056458 51.987520981 0.000000000 1.000000000
POLYGON_POINT 85.830056458 51.980738346 0.000000000 0.000000000
END_WINDING
END_POLYGON
BEGIN_POLYGON 26 65535 4
BEGIN_WINDING
POLYGON_POINT 85.830056458 51.980738346 1.000000000 0.000000000
POLYGON_POINT 85.830056458 51.987520981 1.000000000 1.000000000
POLYGON_POINT 85.819071870 51.987520981 0.000000000 1.000000000
POLYGON_POINT 85.819071870 51.980738346 0.000000000 0.000000000
END_WINDING
END_POLYGON
BEGIN_POLYGON 27 65535 4
BEGIN_WINDING
POLYGON_POINT 85.819072347 51.980738346 1.000000000 0.000000000
POLYGON_POINT 85.819072347 51.987520981 1.000000000 1.000000000
POLYGON_POINT 85.808087758 51.987520981 0.000000000 1.000000000
POLYGON_POINT 85.808087758 51.980738346 0.000000000 0.000000000
END_WINDING
END_POLYGON
# Result code: 0
